%YAML 1.1
%TAG !u! tag:unity3d.com,2011:
--- !u!74 &7400000
AnimationClip:
  m_ObjectHideFlags: 0
  m_PrefabParentObject: {fileID: 0}
  m_PrefabInternal: {fileID: 0}
  m_Name: p1_walk
  serializedVersion: 6
  m_Legacy: 0
  m_Compressed: 0
  m_UseHighQualityCurve: 1
  m_RotationCurves: []
  m_CompressedRotationCurves: []
  m_EulerCurves: []
  m_PositionCurves: []
  m_ScaleCurves: []
  m_FloatCurves: []
  m_PPtrCurves:
  - curve:
    - time: 0
      value: {fileID: 21300000, guid: 74f3f0563d2503242abbdefe9f09b4b5, type: 3}
    - time: 0.041666668
      value: {fileID: 21300000, guid: 3f8c11ff44373764aa760b42921d6f00, type: 3}
    - time: 0.083333336
      value: {fileID: 21300000, guid: bb159df34c286884eba4afbf69ae09da, type: 3}
    - time: 0.125
      value: {fileID: 21300000, guid: b54e4f3667c3b2a4292bbede9e2fff43, type: 3}
    - time: 0.16666667
      value: {fileID: 21300000, guid: 9273b1c0c0a620646964b8d8282dc238, type: 3}
    - time: 0.20833334
      value: {fileID: 21300000, guid: 79979290d31d4a1409e4ba95f499cb17, type: 3}
    - time: 0.25
      value: {fileID: 21300000, guid: b60c17953a03a1049b4590738f0b3ff8, type: 3}
    - time: 0.29166666
      value: {fileID: 21300000, guid: 2bf9f2db2e0861948a8d164775949cdc, type: 3}
    - time: 0.3333333
      value: {fileID: 21300000, guid: aa7e4f599f09b8c428f34f6ecefd064b, type: 3}
    - time: 0.37499997
      value: {fileID: 21300000, guid: e187edbf625f7b74da8930f463b77dbe, type: 3}
    - time: 0.41666663
      value: {fileID: 21300000, guid: c8b949c5fbb760d478cd0995e233fd75, type: 3}
    attribute: m_Sprite
    path: 
    classID: 212
    script: {fileID: 0}
  m_SampleRate: 24
  m_WrapMode: 0
  m_Bounds:
    m_Center: {x: 0, y: 0, z: 0}
    m_Extent: {x: 0, y: 0, z: 0}
  m_ClipBindingConstant:
    genericBindings:
    - path: 0
      attribute: 0
      script: {fileID: 0}
      classID: 212
      customType: 23
      isPPtrCurve: 1
    pptrCurveMapping:
    - {fileID: 21300000, guid: 74f3f0563d2503242abbdefe9f09b4b5, type: 3}
    - {fileID: 21300000, guid: 3f8c11ff44373764aa760b42921d6f00, type: 3}
    - {fileID: 21300000, guid: bb159df34c286884eba4afbf69ae09da, type: 3}
    - {fileID: 21300000, guid: b54e4f3667c3b2a4292bbede9e2fff43, type: 3}
    - {fileID: 21300000, guid: 9273b1c0c0a620646964b8d8282dc238, type: 3}
    - {fileID: 21300000, guid: 79979290d31d4a1409e4ba95f499cb17, type: 3}
    - {fileID: 21300000, guid: b60c17953a03a1049b4590738f0b3ff8, type: 3}
    - {fileID: 21300000, guid: 2bf9f2db2e0861948a8d164775949cdc, type: 3}
    - {fileID: 21300000, guid: aa7e4f599f09b8c428f34f6ecefd064b, type: 3}
    - {fileID: 21300000, guid: e187edbf625f7b74da8930f463b77dbe, type: 3}
    - {fileID: 21300000, guid: c8b949c5fbb760d478cd0995e233fd75, type: 3}
  m_AnimationClipSettings:
    serializedVersion: 2
    m_AdditiveReferencePoseClip: {fileID: 0}
    m_AdditiveReferencePoseTime: 0
    m_StartTime: 0
    m_StopTime: 0.45833328
    m_OrientationOffsetY: 0
    m_Level: 0
    m_CycleOffset: 0
    m_HasAdditiveReferencePose: 0
    m_LoopTime: 1
    m_LoopBlend: 0
    m_LoopBlendOrientation: 0
    m_LoopBlendPositionY: 0
    m_LoopBlendPositionXZ: 0
    m_KeepOriginalOrientation: 0
    m_KeepOriginalPositionY: 1
    m_KeepOriginalPositionXZ: 0
    m_HeightFromFeet: 0
    m_Mirror: 0
  m_EditorCurves: []
  m_EulerEditorCurves: []
  m_HasGenericRootTransform: 0
  m_HasMotionFloatCurves: 0
  m_GenerateMotionCurves: 0
  m_IsEmpty: 0
  m_Events: []
